2022-09-11 14:48:50,004 INFO    MainThread:7500 [wandb_setup.py:_flush():68] Configure stats pid to 7500
2022-09-11 14:48:50,005 INFO    MainThread:7500 [wandb_setup.py:_flush():68] Loading settings from C:\Users\Toni\.config\wandb\settings
2022-09-11 14:48:50,005 INFO    MainThread:7500 [wandb_setup.py:_flush():68] Loading settings from D:\Unity\Projects\SnakeData\wandb\settings
2022-09-11 14:48:50,005 INFO    MainThread:7500 [wandb_setup.py:_flush():68] Loading settings from environment variables: {'_require_service': 'True'}
2022-09-11 14:48:50,006 INFO    MainThread:7500 [wandb_setup.py:_flush():68] Inferring run settings from compute environment: {'program_relpath': 'main.py', 'program': 'd:\\Unity\\Projects\\SnakeData\\main.py'}
2022-09-11 14:48:50,006 INFO    MainThread:7500 [wandb_setup.py:_flush():68] Applying login settings: {'mode': 'offline'}
2022-09-11 14:48:50,007 INFO    MainThread:7500 [wandb_init.py:_log_setup():476] Logging user logs to D:\Unity\Projects\SnakeData\wandb\offline-run-20220911_144849-jncifjci\logs\debug.log
2022-09-11 14:48:50,007 INFO    MainThread:7500 [wandb_init.py:_log_setup():477] Logging internal logs to D:\Unity\Projects\SnakeData\wandb\offline-run-20220911_144849-jncifjci\logs\debug-internal.log
2022-09-11 14:48:50,008 INFO    MainThread:7500 [wandb_init.py:init():516] calling init triggers
2022-09-11 14:48:50,008 INFO    MainThread:7500 [wandb_init.py:init():519] wandb.init called with sweep_config: {}
config: {}
2022-09-11 14:48:50,009 INFO    MainThread:7500 [wandb_init.py:init():569] starting backend
2022-09-11 14:48:50,009 INFO    MainThread:7500 [wandb_init.py:init():573] setting up manager
2022-09-11 14:48:50,016 INFO    MainThread:7500 [backend.py:_multiprocessing_setup():102] multiprocessing start_methods=spawn, using: spawn
2022-09-11 14:48:50,025 INFO    MainThread:7500 [wandb_init.py:init():580] backend started and connected
2022-09-11 14:48:50,031 INFO    MainThread:7500 [wandb_init.py:init():658] updated telemetry
2022-09-11 14:48:50,034 INFO    MainThread:7500 [wandb_init.py:init():727] starting run threads in backend
2022-09-11 14:48:50,317 INFO    MainThread:7500 [wandb_run.py:_console_start():1954] atexit reg
2022-09-11 14:48:50,318 INFO    MainThread:7500 [wandb_run.py:_redirect():1812] redirect: SettingsConsole.WRAP_RAW
2022-09-11 14:48:50,318 INFO    MainThread:7500 [wandb_run.py:_redirect():1877] Wrapping output streams.
2022-09-11 14:48:50,319 INFO    MainThread:7500 [wandb_run.py:_redirect():1899] Redirects installed.
2022-09-11 14:48:50,320 INFO    MainThread:7500 [wandb_init.py:init():764] run started, returning control to user process
2022-09-11 14:48:52,458 WARNING MsgRouterThr:7500 [router.py:message_loop():77] message_loop has been closed
